Section	Name	Response type	Values	Default value	Not Applicable allowed	TBD allowed	Description	Requirement template	Text	Insert into SRS type
Product	Organization	T			Yes	No				I
Product	Name	T			Yes	No				I
Product	Project/product	1	Project,Product		Yes	No				I
Product	The product shall/The project shall..	1	The product shall,The project shall		Yes	No				I
Product	Author(s)	T			Yes	No				I
Product	Date created	T			Yes	No				I
Product	Version	T			Yes	No				I
Product	Draft/approved	1	draft,approved		Yes	No				I
Product	Revision history	T			Yes	No				I
Purpose	Stand-alone/component	1	stand-alone,component		Yes	No		It is ? application		P
Document conventions	Formatting	T			Yes	No				I
Document conventions	Fonts	T			Yes	No				I
Document conventions	Priority inheritance	T			Yes	No				I
Intended audience	Personalities	M	developers,project managers,marketing,users,testers,technical writers		Yes	Yes		Product is indended for: ?		P
Suggested reading sequence	-	T			Yes	Yes				I